MyNotes
…
Arranging observations by life expectancy

gapminder %>% arrange(lifeExp)  #Arrange by life expectancy ascending order

## # A tibble: 1,704 x 6
##    country      continent  year lifeExp     pop gdpPercap
##    <fct>        <fct>     <int>   <dbl>   <int>     <dbl>
##  1 Rwanda       Africa     1992    23.6 7290203      737.
##  2 Afghanistan  Asia       1952    28.8 8425333      779.
##  3 Gambia       Africa     1952    30    284320      485.
##  4 Angola       Africa     1952    30.0 4232095     3521.
##  5 Sierra Leone Africa     1952    30.3 2143249      880.
##  6 Afghanistan  Asia       1957    30.3 9240934      821.
##  7 Cambodia     Asia       1977    31.2 6978607      525.
##  8 Mozambique   Africa     1952    31.3 6446316      469.
##  9 Sierra Leone Africa     1957    31.6 2295678     1004.
## 10 Burkina Faso Africa     1952    32.0 4469979      543.
## # ... with 1,694 more rows

gapminder %>% arrange(desc(lifeExp))

## # A tibble: 1,704 x 6
##    country          continent  year lifeExp       pop gdpPercap
##    <fct>            <fct>     <int>   <dbl>     <int>     <dbl>
##  1 Japan            Asia       2007    82.6 127467972    31656.
##  2 Hong Kong, China Asia       2007    82.2   6980412    39725.
##  3 Japan            Asia       2002    82   127065841    28605.
##  4 Iceland          Europe     2007    81.8    301931    36181.
##  5 Switzerland      Europe     2007    81.7   7554661    37506.
##  6 Hong Kong, China Asia       2002    81.5   6762476    30209.
##  7 Australia        Oceania    2007    81.2  20434176    34435.
##  8 Spain            Europe     2007    80.9  40448191    28821.
##  9 Sweden           Europe     2007    80.9   9031088    33860.
## 10 Israel           Asia       2007    80.7   6426679    25523.
## # ... with 1,694 more rows

Using a combination of filter and arrange

# Filter for the year 1957, then arrange in descending order of population
gapminder %>% filter(year == 1957) %>% arrange(desc(pop))

## # A tibble: 142 x 6
##    country        continent  year lifeExp       pop gdpPercap
##    <fct>          <fct>     <int>   <dbl>     <int>     <dbl>
##  1 China          Asia       1957    50.5 637408000      576.
##  2 India          Asia       1957    40.2 409000000      590.
##  3 United States  Americas   1957    69.5 171984000    14847.
##  4 Japan          Asia       1957    65.5  91563009     4318.
##  5 Indonesia      Asia       1957    39.9  90124000      859.
##  6 Germany        Europe     1957    69.1  71019069    10188.
##  7 Brazil         Americas   1957    53.3  65551171     2487.
##  8 United Kingdom Europe     1957    70.4  51430000    11283.
##  9 Bangladesh     Asia       1957    39.3  51365468      662.
## 10 Italy          Europe     1957    67.8  49182000     6249.
## # ... with 132 more rows
…
